simulation/qsim/teste.msim.vcd
$comment
	File created using the following command:
		vcd file teste.msim.vcd -direction
$end
$date
	Tue Oct 11 21:04:36 2022
$end
$version
	ModelSim Version 10.1d
$end
$timescale
	1ps
$end
$scope module simple_480p_vlg_vec_tst $end
$var reg 1 ! clk_pix $end
$var reg 1 " rst_pix $end
$var wire 1 # de $end
$var wire 1 $ hsync $end
$var wire 1 % sx [9] $end
$var wire 1 & sx [8] $end
$var wire 1 ' sx [7] $end
$var wire 1 ( sx [6] $end
$var wire 1 ) sx [5] $end
$var wire 1 * sx [4] $end
$var wire 1 + sx [3] $end
$var wire 1 , sx [2] $end
$var wire 1 - sx [1] $end
$var wire 1 . sx [0] $end
$var wire 1 / sy [9] $end
$var wire 1 0 sy [8] $end
$var wire 1 1 sy [7] $end
$var wire 1 2 sy [6] $end
$var wire 1 3 sy [5] $end
$var wire 1 4 sy [4] $end
$var wire 1 5 sy [3] $end
$var wire 1 6 sy [2] $end
$var wire 1 7 sy [1] $end
$var wire 1 8 sy [0] $end
$var wire 1 9 vsync $end
$var wire 1 : sampler $end
$scope module i1 $end
$var wire 1 ; gnd $end
$var wire 1 < vcc $end
$var wire 1 = unknown $end
$var tri1 1 > devclrn $end
$var tri1 1 ? devpor $end
$var tri1 1 @ devoe $end
$var wire 1 A rst_pix~combout $end
$var wire 1 B clk_pix~combout $end
$var wire 1 C clk_pix~clkctrl_outclk $end
$var wire 1 D sx[0]~10_combout $end
$var wire 1 E sx[0]~11 $end
$var wire 1 F sx[1]~14 $end
$var wire 1 G sx[2]~16 $end
$var wire 1 H sx[3]~18 $end
$var wire 1 I sx[4]~19_combout $end
$var wire 1 J sx[4]~reg0_regout $end
$var wire 1 K sx[4]~20 $end
$var wire 1 L sx[5]~21_combout $end
$var wire 1 M sx[5]~reg0_regout $end
$var wire 1 N sx[5]~22 $end
$var wire 1 O sx[6]~24 $end
$var wire 1 P sx[7]~25_combout $end
$var wire 1 Q sx[7]~reg0_regout $end
$var wire 1 R Equal0~1_combout $end
$var wire 1 S sx[7]~26 $end
$var wire 1 T sx[8]~27_combout $end
$var wire 1 U sx[8]~reg0_regout $end
$var wire 1 V sx[8]~28 $end
$var wire 1 W sx[9]~29_combout $end
$var wire 1 X sx[9]~reg0_regout $end
$var wire 1 Y Equal0~2_combout $end
$var wire 1 Z sx[1]~13_combout $end
$var wire 1 [ sx[1]~reg0_regout $end
$var wire 1 \ sx[3]~17_combout $end
$var wire 1 ] sx[3]~reg0_regout $end
$var wire 1 ^ Equal0~0_combout $end
$var wire 1 _ sx[0]~12_combout $end
$var wire 1 ` sx[0]~reg0_regout $end
$var wire 1 a sx[2]~15_combout $end
$var wire 1 b sx[2]~reg0_regout $end
$var wire 1 c sx[6]~23_combout $end
$var wire 1 d sx[6]~reg0_regout $end
$var wire 1 e sy[0]~10_combout $end
$var wire 1 f sy[0]~11 $end
$var wire 1 g sy[1]~13_combout $end
$var wire 1 h sy[1]~reg0_regout $end
$var wire 1 i sy[1]~14 $end
$var wire 1 j sy[2]~16 $end
$var wire 1 k sy[3]~18 $end
$var wire 1 l sy[4]~19_combout $end
$var wire 1 m sy[4]~reg0_regout $end
$var wire 1 n sy[4]~20 $end
$var wire 1 o sy[5]~22 $end
$var wire 1 p sy[6]~23_combout $end
$var wire 1 q sy[6]~reg0_regout $end
$var wire 1 r sy[5]~21_combout $end
$var wire 1 s sy[5]~reg0_regout $end
$var wire 1 t sy[2]~15_combout $end
$var wire 1 u sy[2]~reg0_regout $end
$var wire 1 v Equal1~1_combout $end
$var wire 1 w sy[3]~17_combout $end
$var wire 1 x sy[3]~reg0_regout $end
$var wire 1 y Equal1~0_combout $end
$var wire 1 z sy[6]~24 $end
$var wire 1 { sy[7]~26 $end
$var wire 1 | sy[8]~27_combout $end
$var wire 1 } sy[8]~reg0_regout $end
$var wire 1 ~ sy[8]~28 $end
$var wire 1 !! sy[9]~29_combout $end
$var wire 1 "! sy[9]~reg0_regout $end
$var wire 1 #! Equal1~2_combout $end
$var wire 1 $! sy[0]~12_combout $end
$var wire 1 %! sy[0]~reg0_regout $end
$var wire 1 &! sy[7]~25_combout $end
$var wire 1 '! sy[7]~reg0_regout $end
$var wire 1 (! hsync~0_combout $end
$var wire 1 )! hsync~1_combout $end
$var wire 1 *! LessThan5~0_combout $end
$var wire 1 +! vsync~0_combout $end
$var wire 1 ,! vsync~1_combout $end
$var wire 1 -! de~0_combout $end
$var wire 1 .! de~1_combout $end
$upscope $end
$upscope $end
$enddefinitions $end
#0
$dumpvars
0!
0"
1#
1$
0.
0-
0,
0+
0*
0)
0(
0'
0&
0%
08
07
06
05
04
03
02
01
00
0/
19
x:
0;
1<
x=
1>
1?
1@
0A
0B
0C
1D
0E
1F
0G
1H
0I
0J
0K
0L
0M
1N
0O
0P
0Q
1R
1S
0T
0U
0V
0W
0X
1Y
0Z
0[
0\
0]
0^
0_
0`
0a
0b
0c
0d
1e
0f
0g
0h
1i
0j
1k
0l
0m
0n
1o
0p
0q
0r
0s
0t
0u
1v
0w
0x
1y
0z
1{
0|
0}
0~
0!!
0"!
1#!
0$!
0%!
0&!
0'!
1(!
1)!
0*!
1+!
1,!
0-!
0.!
$end
#5000
1!
1B
1C
0:
1`
1E
0D
1.
1Z
#10000
0!
0B
0C
1:
#15000
1!
1B
1C
0:
0`
1[
0E
1D
0F
0Z
0.
1-
1F
1Z
1a
0a
#20000
0!
0B
0C
1:
#25000
1!
1B
1C
0:
1`
1E
0D
1.
0F
0Z
1a
#30000
0!
0B
0C
1:
#35000
1!
1B
1C
0:
1b
0`
0[
1G
0a
0E
1D
1F
1Z
1,
0.
0-
1\
0Z
0G
1a
0\
#40000
0!
0B
0C
1:
#45000
1!
1B
1C
0:
1`
1E
0D
1.
1Z
#50000
0!
0B
0C
1:
#55000
1!
1B
1C
0:
0`
1[
0E
1D
0F
0Z
0.
1-
1F
1Z
1G
0a
0G
1a
1\
0\
#60000
0!
0B
0C
1:
#65000
1!
1B
1C
0:
1`
1E
0D
1.
0F
0Z
1G
0a
1\
#70000
0!
0B
0C
1:
#75000
1!
1B
1C
0:
0b
0`
1]
0[
0G
1a
0E
1D
0H
0\
1F
1Z
0,
0.
1+
0-
1H
1\
0Z
1I
0a
0I
#80000
0!
0B
0C
1:
#85000
1!
1B
1C
0:
1`
1E
0D
1.
1Z
#90000
0!
0B
0C
1:
#95000
1!
1B
1C
0:
0`
1[
0E
1D
0F
0Z
0.
1-
1F
1Z
1a
0a
#100000
0!
0B
0C
1:
#105000
1!
1B
1C
0:
1`
1E
0D
1.
0F
0Z
1a
#110000
0!
0B
0C
1:
#115000
1!
1B
1C
0:
1b
0`
0[
1G
0a
0E
1D
1F
1Z
1,
0.
0-
0H
0\
0Z
0G
1a
1I
1H
1\
0I
#120000
0!
0B
0C
1:
#125000
1!
1B
1C
0:
1`
1E
0D
1.
1Z
#130000
0!
0B
0C
1:
#135000
1!
1B
1C
0:
0`
1[
0E
1D
0F
0Z
0.
1-
1F
1Z
1G
0a
0G
1a
0H
0\
1H
1\
1I
0I
#140000
0!
0B
0C
1:
#145000
1!
1B
1C
0:
1`
1^
1E
0D
1.
0(!
0F
0Z
1G
0a
0H
0\
1I
#150000
0!
0B
0C
1:
#155000
1!
1B
1C
0:
0b
0`
0]
0[
1J
0^
0G
1a
0E
1D
1H
1\
1F
1Z
0R
1K
0I
0,
0.
0+
0-
1*
0\
0Z
0K
1I
0a
1L
0L
#160000
0!
0B
0C
1:
#165000
1!
1B
1C
0:
1`
1E
0D
1.
1Z
#170000
0!
0B
0C
1:
#175000
1!
1B
1C
0:
0`
1[
0E
1D
0F
0Z
0.
1-
1F
1Z
1a
0a
#180000
0!
0B
0C
1:
#185000
1!
1B
1C
0:
1`
1E
0D
1.
0F
0Z
1a
#190000
0!
0B
0C
1:
#195000
1!
1B
1C
0:
1b
0`
0[
1G
0a
0E
1D
1F
1Z
1,
0.
0-
1\
0Z
0G
1a
0\
#200000
0!
0B
0C
1:
#205000
1!
1B
1C
0:
1`
1E
0D
1.
1Z
#210000
0!
0B
0C
1:
#215000
1!
1B
1C
0:
0`
1[
0E
1D
0F
0Z
0.
1-
1F
1Z
1G
0a
0G
1a
1\
0\
#220000
0!
0B
0C
1:
#225000
1!
1B
1C
0:
1`
1E
0D
1.
0F
0Z
1G
0a
1\
#230000
0!
0B
0C
1:
#235000
1!
1B
1C
0:
0b
0`
1]
0[
0G
1a
0E
1D
0H
0\
1F
1Z
0,
0.
1+
0-
1H
1\
0Z
1K
0I
0a
0K
1I
1L
0L
#240000
0!
0B
0C
1:
#245000
1!
1B
1C
0:
1`
1E
0D
1.
1Z
#250000
0!
0B
0C
1:
#255000
1!
1B
1C
0:
0`
1[
0E
1D
0F
0Z
0.
1-
1F
1Z
1a
0a
#260000
0!
0B
0C
1:
#265000
1!
1B
1C
0:
1`
1E
0D
1.
0F
0Z
1a
#270000
0!
0B
0C
1:
#275000
1!
1B
1C
0:
1b
0`
0[
1G
0a
0E
1D
1F
1Z
1,
0.
0-
0H
0\
0Z
0G
1a
1K
0I
1H
1\
1L
0K
1I
0L
#280000
0!
0B
0C
1:
#285000
1!
1B
1C
0:
1`
1E
0D
1.
1Z
#290000
0!
0B
0C
1:
#295000
1!
1B
1C
0:
0`
1[
0E
1D
0F
0Z
0.
1-
1F
1Z
1G
0a
0G
1a
0H
0\
1H
1\
1K
0I
0K
1I
1L
0L
#300000
0!
0B
0C
1:
#305000
1!
1B
1C
0:
1`
1^
1E
0D
1.
0F
0Z
1G
0a
0H
0\
1K
0I
1L
#310000
0!
0B
0C
1:
#315000
1!
1B
1C
0:
0b
0`
0]
0[
1M
0J
0^
0G
1a
0E
1D
1H
1\
1F
1Z
1R
0N
0L
0K
1I
0,
0.
0+
0-
1)
0*
0\
0Z
0I
0a
1c
1N
1L
0c
#320000
0!
0B
0C
1:
#325000
1!
1B
1C
0:
1`
1E
0D
1.
1Z
#330000
0!
0B
0C
1:
#335000
1!
1B
1C
0:
0`
1[
0E
1D
0F
0Z
0.
1-
1F
1Z
1a
0a
#340000
0!
0B
0C
1:
#345000
1!
1B
1C
0:
1`
1E
0D
1.
0F
0Z
1a
#350000
0!
0B
0C
1:
#355000
1!
1B
1C
0:
1b
0`
0[
1G
0a
0E
1D
1F
1Z
1,
0.
0-
1\
0Z
0G
1a
0\
#360000
0!
0B
0C
1:
#365000
1!
1B
1C
0:
1`
1E
0D
1.
1Z
#370000
0!
0B
0C
1:
#375000
1!
1B
1C
0:
0`
1[
0E
1D
0F
0Z
0.
1-
1F
1Z
1G
0a
0G
1a
1\
0\
#380000
0!
0B
0C
1:
#385000
1!
1B
1C
0:
1`
1E
0D
1.
0F
0Z
1G
0a
1\
#390000
0!
0B
0C
1:
#395000
1!
1B
1C
0:
0b
0`
1]
0[
0G
1a
0E
1D
0H
0\
1F
1Z
0,
0.
1+
0-
1H
1\
0Z
1I
0a
0I
#400000
0!
0B
0C
1:
#405000
1!
1B
1C
0:
1`
1E
0D
1.
1Z
#410000
0!
0B
0C
1:
#415000
1!
1B
1C
0:
0`
1[
0E
1D
0F
0Z
0.
1-
1F
1Z
1a
0a
#420000
0!
0B
0C
1:
#425000
1!
1B
1C
0:
1`
1E
0D
1.
0F
0Z
1a
#430000
0!
0B
0C
1:
#435000
1!
1B
1C
0:
1b
0`
0[
1G
0a
0E
1D
1F
1Z
1,
0.
0-
0H
0\
0Z
0G
1a
1I
1H
1\
0I
#440000
0!
0B
0C
1:
#445000
1!
1B
1C
0:
1`
1E
0D
1.
1Z
#450000
0!
0B
0C
1:
#455000
1!
1B
1C
0:
0`
1[
0E
1D
0F
0Z
0.
1-
1F
1Z
1G
0a
0G
1a
0H
0\
1H
1\
1I
0I
#460000
0!
0B
0C
1:
#465000
1!
1B
1C
0:
1`
1^
1E
0D
1.
0F
0Z
1G
0a
0H
0\
1I
#470000
0!
0B
0C
1:
#475000
1!
1B
1C
0:
0b
0`
0]
0[
1J
0^
0G
1a
0E
1D
1H
1\
1F
1Z
1K
0I
0,
0.
0+
0-
1*
0\
0Z
0K
1I
0a
0N
0L
1N
1L
1c
0c
#480000
0!
0B
0C
1:
#485000
1!
1B
1C
0:
1`
1E
0D
1.
1Z
#490000
0!
0B
0C
1:
#495000
1!
1B
1C
0:
0`
1[
0E
1D
0F
0Z
0.
1-
1F
1Z
1a
0a
#500000
0!
0B
0C
1:
#505000
1!
1B
1C
0:
1`
1E
0D
1.
0F
0Z
1a
#510000
0!
0B
0C
1:
#515000
1!
1B
1C
0:
1b
0`
0[
1G
0a
0E
1D
1F
1Z
1,
0.
0-
1\
0Z
0G
1a
0\
#520000
0!
0B
0C
1:
#525000
1!
1B
1C
0:
1`
1E
0D
1.
1Z
#530000
0!
0B
0C
1:
#535000
1!
1B
1C
0:
0`
1[
0E
1D
0F
0Z
0.
1-
1F
1Z
1G
0a
0G
1a
1\
0\
#540000
0!
0B
0C
1:
#545000
1!
1B
1C
0:
1`
1E
0D
1.
0F
0Z
1G
0a
1\
#550000
0!
0B
0C
1:
#555000
1!
1B
1C
0:
0b
0`
1]
0[
0G
1a
0E
1D
0H
0\
1F
1Z
0,
0.
1+
0-
1H
1\
0Z
1K
0I
0a
0K
1I
0N
0L
1N
1L
1c
0c
#560000
0!
0B
0C
1:
#565000
1!
1B
1C
0:
1`
1E
0D
1.
1Z
#570000
0!
0B
0C
1:
#575000
1!
1B
1C
0:
0`
1[
0E
1D
0F
0Z
0.
1-
1F
1Z
1a
0a
#580000
0!
0B
0C
1:
#585000
1!
1B
1C
0:
1`
1E
0D
1.
0F
0Z
1a
#590000
0!
0B
0C
1:
#595000
1!
1B
1C
0:
1b
0`
0[
1G
0a
0E
1D
1F
1Z
1,
0.
0-
0H
0\
0Z
0G
1a
1K
0I
1H
1\
0N
0L
0K
1I
1c
1N
1L
0c
#600000
0!
0B
0C
1:
#605000
1!
1B
1C
0:
1`
1E
0D
1.
1Z
#610000
0!
0B
0C
1:
#615000
1!
1B
1C
0:
0`
1[
0E
1D
0F
0Z
0.
1-
1F
1Z
1G
0a
0G
1a
0H
0\
1H
1\
1K
0I
0K
1I
0N
0L
1N
1L
1c
0c
#620000
0!
0B
0C
1:
#625000
1!
1B
1C
0:
1`
1^
1E
0D
1.
0F
0Z
1G
0a
0H
0\
1K
0I
0N
0L
1c
#630000
0!
0B
0C
1:
#635000
1!
1B
1C
0:
1d
0b
0`
0]
0[
0M
0J
1O
0c
0^
0G
1a
0E
1D
1H
1\
1F
1Z
1N
1L
0K
1I
1(
0,
0.
0+
0-
0)
0*
1P
0\
0Z
0I
0a
0O
1c
0L
0P
#640000
0!
0B
0C
1:
#645000
1!
1B
1C
0:
1`
1E
0D
1.
1Z
#650000
0!
0B
0C
1:
#655000
1!
1B
1C
0:
0`
1[
0E
1D
0F
0Z
0.
1-
1F
1Z
1a
0a
#660000
0!
0B
0C
1:
#665000
1!
1B
1C
0:
1`
1E
0D
1.
0F
0Z
1a
#670000
0!
0B
0C
1:
#675000
1!
1B
1C
0:
1b
0`
0[
1G
0a
0E
1D
1F
1Z
1,
0.
0-
1\
0Z
0G
1a
0\
#680000
0!
0B
0C
1:
#685000
1!
1B
1C
0:
1`
1E
0D
1.
1Z
#690000
0!
0B
0C
1:
#695000
1!
1B
1C
0:
0`
1[
0E
1D
0F
0Z
0.
1-
1F
1Z
1G
0a
0G
1a
1\
0\
#700000
0!
0B
0C
1:
#705000
1!
1B
1C
0:
1`
1E
0D
1.
0F
0Z
1G
0a
1\
#710000
0!
0B
0C
1:
#715000
1!
1B
1C
0:
0b
0`
1]
0[
0G
1a
0E
1D
0H
0\
1F
1Z
0,
0.
1+
0-
1H
1\
0Z
1I
0a
0I
#720000
0!
0B
0C
1:
#725000
1!
1B
1C
0:
1`
1E
0D
1.
1Z
#730000
0!
0B
0C
1:
#735000
1!
1B
1C
0:
0`
1[
0E
1D
0F
0Z
0.
1-
1F
1Z
1a
0a
#740000
0!
0B
0C
1:
#745000
1!
1B
1C
0:
1`
1E
0D
1.
0F
0Z
1a
#750000
0!
0B
0C
1:
#755000
1!
1B
1C
0:
1b
0`
0[
1G
0a
0E
1D
1F
1Z
1,
0.
0-
0H
0\
0Z
0G
1a
1I
1H
1\
0I
#760000
0!
0B
0C
1:
#765000
1!
1B
1C
0:
1`
1E
0D
1.
1Z
#770000
0!
0B
0C
1:
#775000
1!
1B
1C
0:
0`
1[
0E
1D
0F
0Z
0.
1-
1F
1Z
1G
0a
0G
1a
0H
0\
1H
1\
1I
0I
#780000
0!
0B
0C
1:
#785000
1!
1B
1C
0:
1`
1^
1E
0D
1.
0F
0Z
1G
0a
0H
0\
1I
#790000
0!
0B
0C
1:
#795000
1!
1B
1C
0:
0b
0`
0]
0[
1J
0^
0G
1a
0E
1D
1H
1\
1F
1Z
1K
0I
0,
0.
0+
0-
1*
0\
0Z
0K
1I
0a
1L
0L
#800000
0!
0B
0C
1:
#805000
1!
1B
1C
0:
1`
1E
0D
1.
1Z
#810000
0!
0B
0C
1:
#815000
1!
1B
1C
0:
0`
1[
0E
1D
0F
0Z
0.
1-
1F
1Z
1a
0a
#820000
0!
0B
0C
1:
#825000
1!
1B
1C
0:
1`
1E
0D
1.
0F
0Z
1a
#830000
0!
0B
0C
1:
#835000
1!
1B
1C
0:
1b
0`
0[
1G
0a
0E
1D
1F
1Z
1,
0.
0-
1\
0Z
0G
1a
0\
#840000
0!
0B
0C
1:
#845000
1!
1B
1C
0:
1`
1E
0D
1.
1Z
#850000
0!
0B
0C
1:
#855000
1!
1B
1C
0:
0`
1[
0E
1D
0F
0Z
0.
1-
1F
1Z
1G
0a
0G
1a
1\
0\
#860000
0!
0B
0C
1:
#865000
1!
1B
1C
0:
1`
1E
0D
1.
0F
0Z
1G
0a
1\
#870000
0!
0B
0C
1:
#875000
1!
1B
1C
0:
0b
0`
1]
0[
0G
1a
0E
1D
0H
0\
1F
1Z
0,
0.
1+
0-
1H
1\
0Z
1K
0I
0a
0K
1I
1L
0L
#880000
0!
0B
0C
1:
#885000
1!
1B
1C
0:
1`
1E
0D
1.
1Z
#890000
0!
0B
0C
1:
#895000
1!
1B
1C
0:
0`
1[
0E
1D
0F
0Z
0.
1-
1F
1Z
1a
0a
#900000
0!
0B
0C
1:
#905000
1!
1B
1C
0:
1`
1E
0D
1.
0F
0Z
1a
#910000
0!
0B
0C
1:
#915000
1!
1B
1C
0:
1b
0`
0[
1G
0a
0E
1D
1F
1Z
1,
0.
0-
0H
0\
0Z
0G
1a
1K
0I
1H
1\
1L
0K
1I
0L
#920000
0!
0B
0C
1:
#925000
1!
1B
1C
0:
1`
1E
0D
1.
1Z
#930000
0!
0B
0C
1:
#935000
1!
1B
1C
0:
0`
1[
0E
1D
0F
0Z
0.
1-
1F
1Z
1G
0a
0G
1a
0H
0\
1H
1\
1K
0I
0K
1I
1L
0L
#940000
0!
0B
0C
1:
#945000
1!
1B
1C
0:
1`
1^
1E
0D
1.
0F
0Z
1G
0a
0H
0\
1K
0I
1L
#950000
0!
0B
0C
1:
#955000
1!
1B
1C
0:
0b
0`
0]
0[
1M
0J
0^
0G
1a
0E
1D
1H
1\
1F
1Z
1(!
0N
0L
0K
1I
0,
0.
0+
0-
1)
0*
0(!
0\
0Z
0I
0a
1O
0c
1N
1L
1P
0O
1c
0P
#960000
0!
0B
0C
1:
#965000
1!
1B
1C
0:
1`
1E
0D
1.
1Z
#970000
0!
0B
0C
1:
#975000
1!
1B
1C
0:
0`
1[
0E
1D
0F
0Z
0.
1-
1F
1Z
1a
0a
#980000
0!
0B
0C
1:
#985000
1!
1B
1C
0:
1`
1E
0D
1.
0F
0Z
1a
#990000
0!
0B
0C
1:
#995000
1!
1B
1C
0:
1b
0`
0[
1G
0a
0E
1D
1F
1Z
1,
0.
0-
1\
0Z
0G
1a
0\
#1000000
0!
0B
0C
1:
#1005000
1!
1B
1C
0:
1`
1E
0D
1.
1Z
#1010000
0!
0B
0C
1:
#1015000
1!
1B
1C
0:
0`
1[
0E
1D
0F
0Z
0.
1-
1F
1Z
1G
0a
0G
1a
1\
0\
#1020000
0!
0B
0C
1:
#1025000
1!
1B
1C
0:
1`
1E
0D
1.
0F
0Z
1G
0a
1\
#1030000
0!
0B
0C
1:
#1035000
1!
1B
1C
0:
0b
0`
1]
0[
0G
1a
0E
1D
0H
0\
1F
1Z
0,
0.
1+
0-
1H
1\
0Z
1I
0a
0I
#1040000
0!
0B
0C
1:
#1045000
1!
1B
1C
0:
1`
1E
0D
1.
1Z
#1050000
0!
0B
0C
1:
#1055000
1!
1B
1C
0:
0`
1[
0E
1D
0F
0Z
0.
1-
1F
1Z
1a
0a
#1060000
0!
0B
0C
1:
#1065000
1!
1B
1C
0:
1`
1E
0D
1.
0F
0Z
1a
#1070000
0!
0B
0C
1:
#1075000
1!
1B
1C
0:
1b
0`
0[
1G
0a
0E
1D
1F
1Z
1,
0.
0-
0H
0\
0Z
0G
1a
1I
1H
1\
0I
#1080000
0!
0B
0C
1:
#1085000
1!
1B
1C
0:
1`
1E
0D
1.
1Z
#1090000
0!
0B
0C
1:
#1095000
1!
1B
1C
0:
0`
1[
0E
1D
0F
0Z
0.
1-
1F
1Z
1G
0a
0G
1a
0H
0\
1H
1\
1I
0I
#1100000
0!
0B
0C
1:
#1105000
1!
1B
1C
0:
1`
1^
1E
0D
1.
1(!
0F
0Z
1G
0a
0H
0\
1I
#1110000
0!
0B
0C
1:
#1115000
1!
1B
1C
0:
0b
0`
0]
0[
1J
0^
0G
1a
0E
1D
1H
1\
1F
1Z
1K
0I
0,
0.
0+
0-
1*
0\
0Z
0K
1I
0a
0N
0L
1N
1L
1O
0c
0O
1c
1P
0P
#1120000
0!
0B
0C
1:
#1125000
1!
1B
1C
0:
1`
1E
0D
1.
1Z
#1130000
0!
0B
0C
1:
#1135000
1!
1B
1C
0:
0`
1[
0E
1D
0F
0Z
0.
1-
1F
1Z
1a
0a
#1140000
0!
0B
0C
1:
#1145000
1!
1B
1C
0:
1`
1E
0D
1.
0F
0Z
1a
#1150000
0!
0B
0C
1:
#1155000
1!
1B
1C
0:
1b
0`
0[
1G
0a
0E
1D
1F
1Z
1,
0.
0-
1\
0Z
0G
1a
0\
#1160000
0!
0B
0C
1:
#1165000
1!
1B
1C
0:
1`
1E
0D
1.
1Z
#1170000
0!
0B
0C
1:
#1175000
1!
1B
1C
0:
0`
1[
0E
1D
0F
0Z
0.
1-
1F
1Z
1G
0a
0G
1a
1\
0\
#1180000
0!
0B
0C
1:
#1185000
1!
1B
1C
0:
1`
1E
0D
1.
0F
0Z
1G
0a
1\
#1190000
0!
0B
0C
1:
#1195000
1!
1B
1C
0:
0b
0`
1]
0[
0G
1a
0E
1D
0H
0\
1F
1Z
0,
0.
1+
0-
1H
1\
0Z
1K
0I
0a
0K
1I
0N
0L
1N
1L
1O
0c
0O
1c
1P
0P
#1200000
0!
0B
0C
1:
#1205000
1!
1B
1C
0:
1`
1E
0D
1.
1Z
#1210000
0!
0B
0C
1:
#1215000
1!
1B
1C
0:
0`
1[
0E
1D
0F
0Z
0.
1-
1F
1Z
1a
0a
#1220000
0!
0B
0C
1:
#1225000
1!
1B
1C
0:
1`
1E
0D
1.
0F
0Z
1a
#1230000
0!
0B
0C
1:
#1235000
1!
1B
1C
0:
1b
0`
0[
1G
0a
0E
1D
1F
1Z
1,
0.
0-
0H
0\
0Z
0G
1a
1K
0I
1H
1\
0N
0L
0K
1I
1O
0c
1N
1L
1P
0O
1c
0P
#1240000
0!
0B
0C
1:
#1245000
1!
1B
1C
0:
1`
1E
0D
1.
1Z
#1250000
0!
0B
0C
1:
#1255000
1!
1B
1C
0:
0`
1[
0E
1D
0F
0Z
0.
1-
1F
1Z
1G
0a
0G
1a
0H
0\
1H
1\
1K
0I
0K
1I
0N
0L
1N
1L
1O
0c
0O
1c
1P
0P
#1260000
0!
0B
0C
1:
#1265000
1!
1B
1C
0:
1`
1^
1E
0D
1.
0F
0Z
1G
0a
0H
0\
1K
0I
0N
0L
1O
0c
1P
#1270000
0!
0B
0C
1:
#1275000
1!
1B
1C
0:
0d
0b
0`
0]
0[
1Q
0M
0J
0(!
0O
1c
0^
0G
1a
0E
1D
1H
1\
1F
1Z
0S
0P
1N
1L
0K
1I
0(
0,
0.
0+
0-
1'
0)
0*
1S
1P
1(!
0\
0Z
0I
0a
1T
0c
0L
0T
#1280000
0!
0B
0C
1:
#1285000
1!
1B
1C
0:
1`
1E
0D
1.
1Z
#1290000
0!
0B
0C
1:
#1295000
1!
1B
1C
0:
0`
1[
0E
1D
0F
0Z
0.
1-
1F
1Z
1a
0a
#1300000
0!
0B
0C
1:
#1305000
1!
1B
1C
0:
1`
1E
0D
1.
0F
0Z
1a
#1310000
0!
0B
0C
1:
#1315000
1!
1B
1C
0:
1b
0`
0[
1G
0a
0E
1D
1F
1Z
1,
0.
0-
1\
0Z
0G
1a
0\
#1320000
0!
0B
0C
1:
#1325000
1!
1B
1C
0:
1`
1E
0D
1.
1Z
#1330000
0!
0B
0C
1:
#1335000
1!
1B
1C
0:
0`
1[
0E
1D
0F
0Z
0.
1-
1F
1Z
1G
0a
0G
1a
1\
0\
#1340000
0!
0B
0C
1:
#1345000
1!
1B
1C
0:
1`
1E
0D
1.
0F
0Z
1G
0a
1\
#1350000
0!
0B
0C
1:
#1355000
1!
1B
1C
0:
0b
0`
1]
0[
0G
1a
0E
1D
0H
0\
1F
1Z
0,
0.
1+
0-
1H
1\
0Z
1I
0a
0I
#1360000
0!
0B
0C
1:
#1365000
1!
1B
1C
0:
1`
1E
0D
1.
1Z
#1370000
0!
0B
0C
1:
#1375000
1!
1B
1C
0:
0`
1[
0E
1D
0F
0Z
0.
1-
1F
1Z
1a
0a
#1380000
0!
0B
0C
1:
#1385000
1!
1B
1C
0:
1`
1E
0D
1.
0F
0Z
1a
#1390000
0!
0B
0C
1:
#1395000
1!
1B
1C
0:
1b
0`
0[
1G
0a
0E
1D
1F
1Z
1,
0.
0-
0H
0\
0Z
0G
1a
1I
1H
1\
0I
#1400000
0!
0B
0C
1:
#1405000
1!
1B
1C
0:
1`
1E
0D
1.
1Z
#1410000
0!
0B
0C
1:
#1415000
1!
1B
1C
0:
0`
1[
0E
1D
0F
0Z
0.
1-
1F
1Z
1G
0a
0G
1a
0H
0\
1H
1\
1I
0I
#1420000
0!
0B
0C
1:
#1425000
1!
1B
1C
0:
1`
1^
1E
0D
1.
0(!
0F
0Z
1G
0a
0H
0\
1I
#1430000
0!
0B
0C
1:
#1435000
1!
1B
1C
0:
0b
0`
0]
0[
1J
0^
0G
1a
0E
1D
1H
1\
1F
1Z
1K
0I
0,
0.
0+
0-
1*
0\
0Z
0K
1I
0a
1L
0L
#1440000
0!
0B
0C
1:
#1445000
1!
1B
1C
0:
1`
1E
0D
1.
1Z
#1450000
0!
0B
0C
1:
#1455000
1!
1B
1C
0:
0`
1[
0E
1D
0F
0Z
0.
1-
1F
1Z
1a
0a
#1460000
0!
0B
0C
1:
#1465000
1!
1B
1C
0:
1`
1E
0D
1.
0F
0Z
1a
#1470000
0!
0B
0C
1:
#1475000
1!
1B
1C
0:
1b
0`
0[
1G
0a
0E
1D
1F
1Z
1,
0.
0-
1\
0Z
0G
1a
0\
#1480000
0!
0B
0C
1:
#1485000
1!
1B
1C
0:
1`
1E
0D
1.
1Z
#1490000
0!
0B
0C
1:
#1495000
1!
1B
1C
0:
0`
1[
0E
1D
0F
0Z
0.
1-
1F
1Z
1G
0a
0G
1a
1\
0\
#1500000
0!
0B
0C
1:
#1505000
1!
1B
1C
0:
1`
1E
0D
1.
0F
0Z
1G
0a
1\
#1510000
0!
0B
0C
1:
#1515000
1!
1B
1C
0:
0b
0`
1]
0[
0G
1a
0E
1D
0H
0\
1F
1Z
0,
0.
1+
0-
1H
1\
0Z
1K
0I
0a
0K
1I
1L
0L
#1520000
0!
0B
0C
1:
#1525000
1!
1B
1C
0:
1`
1E
0D
1.
1Z
#1530000
0!
0B
0C
1:
#1535000
1!
1B
1C
0:
0`
1[
0E
1D
0F
0Z
0.
1-
1F
1Z
1a
0a
#1540000
0!
0B
0C
1:
#1545000
1!
1B
1C
0:
1`
1E
0D
1.
0F
0Z
1a
#1550000
0!
0B
0C
1:
#1555000
1!
1B
1C
0:
1b
0`
0[
1G
0a
0E
1D
1F
1Z
1,
0.
0-
0H
0\
0Z
0G
1a
1K
0I
1H
1\
1L
0K
1I
0L
#1560000
0!
0B
0C
1:
#1565000
1!
1B
1C
0:
1`
1E
0D
1.
1Z
#1570000
0!
0B
0C
1:
#1575000
1!
1B
1C
0:
0`
1[
0E
1D
0F
0Z
0.
1-
1F
1Z
1G
0a
0G
1a
0H
0\
1H
1\
1K
0I
0K
1I
1L
0L
#1580000
0!
0B
0C
1:
#1585000
1!
1B
1C
0:
1`
1^
1E
0D
1.
0F
0Z
1G
0a
0H
0\
1K
0I
1L
#1590000
0!
0B
0C
1:
#1595000
1!
1B
1C
0:
0b
0`
0]
0[
1M
0J
0^
0G
1a
0E
1D
1H
1\
1F
1Z
0N
0L
0K
1I
0,
0.
0+
0-
1)
0*
0\
0Z
0I
0a
1c
1N
1L
0c
#1600000
0!
0B
0C
1:
#1605000
1!
1B
1C
0:
1`
1E
0D
1.
1Z
#1610000
0!
0B
0C
1:
#1615000
1!
1B
1C
0:
0`
1[
0E
1D
0F
0Z
0.
1-
1F
1Z
1a
0a
#1620000
0!
0B
0C
1:
#1625000
1!
1B
1C
0:
1`
1E
0D
1.
0F
0Z
1a
#1630000
0!
0B
0C
1:
#1635000
1!
1B
1C
0:
1b
0`
0[
1G
0a
0E
1D
1F
1Z
1,
0.
0-
1\
0Z
0G
1a
0\
